Introduction to R - 3 Manipulating data
…
download.file("https://www.qogdata.pol.gu.se/data/qog_ei_ts_sept21.dta", destfile = "data/qog_env.dta")

# Import the qog environment dataset

qog <- haven::read_dta("data/qog_env.dta") 

3.1.1 count()

From Exercise 1, we saw that the qog dataset has a country-year structure. For each country, we have a series of indicators with one value per year. the qog dataset has a year variable and a country variable.

qog |> 
  count(year)

# A tibble: 75 × 2
    year     n
   <dbl> <int>
 1  1946    75
 2  1947    76
 3  1948    82
 4  1949    85
 5  1950    88
 6  1951    88
 7  1952    89
 8  1953    89
 9  1954    91
10  1955    94
# ℹ 65 more rows

qog |> 
  count(year, cname)

# A tibble: 11,722 × 3
    year cname                                n
   <dbl> <chr>                            <int>
 1  1946 Afghanistan                          1
 2  1946 Albania                              1
 3  1946 Andorra                              1
 4  1946 Antigua and Barbuda                  1
 5  1946 Argentina                            1
 6  1946 Australia                            1
 7  1946 Belgium                              1
 8  1946 Bhutan                               1
 9  1946 Bolivia (Plurinational State of)     1
10  1946 Brazil                               1
# ℹ 11,712 more rows
…
|
or

!
not

%in%
in the set

For instance, I might be only interested in environmental indicators for France. In that case I could filter the whole dataset with only the observations that has France as country variable.

qog |> 
  filter(cname == "France") 

# A tibble: 75 × 414
   cname  ccode  year cname_qog      ccode_qog ccodealp ccodealp_year ccodecow
   <chr>  <dbl> <dbl> <chr>              <dbl> <chr>    <chr>            <dbl>
 1 France   250  1963 France (1963-)       250 FRA      FRA63              220
 2 France   250  1964 France (1963-)       250 FRA      FRA64              220
 3 France   250  1965 France (1963-)       250 FRA      FRA65              220
 4 France   250  1966 France (1963-)       250 FRA      FRA66              220
 5 France   250  1967 France (1963-)       250 FRA      FRA67              220
 6 France   250  1968 France (1963-)       250 FRA      FRA68              220
 7 France   250  1969 France (1963-)       250 FRA      FRA69              220
 8 France   250  1970 France (1963-)       250 FRA      FRA70              220
 9 France   250  1971 France (1963-)       250 FRA      FRA71              220
10 France   250  1972 France (1963-)       250 FRA      FRA72              220
# ℹ 65 more rows
# ℹ 406 more variables: ccodevdem <dbl>, cname_year <chr>, version <chr>,
#   act_act <dbl>, as_rifr <dbl>, as_ws <dbl>, bti_envc <dbl>, ccci_coop <dbl>,
#   ccci_em <dbl>, ccci_fin <dbl>, ccci_kyoto <dbl>, ccci_rep <dbl>,
#   ccci_unfccc <dbl>, cckp_rain <dbl>, cckp_temp <dbl>, ccl_exepp <dbl>,
#   ccl_leglp <dbl>, ccl_lpp <dbl>, ccl_mitlpp <dbl>, ccl_nexep <dbl>,
#   ccl_nlegl <dbl>, ccl_nlp <dbl>, ccl_nmitlp <dbl>, edgar_bc <dbl>, …

Here, see that the tidyverse functions are a bit clearer that what you could do directly with R base functions. To do the same, here an example of what we would have done :

qog[qog$cname %in% c("France"), ]

# A tibble: 75 × 414
   cname  ccode  year cname_qog      ccode_qog ccodealp ccodealp_year ccodecow
   <chr>  <dbl> <dbl> <chr>              <dbl> <chr>    <chr>            <dbl>
 1 France   250  1963 France (1963-)       250 FRA      FRA63              220
 2 France   250  1964 France (1963-)       250 FRA      FRA64              220
 3 France   250  1965 France (1963-)       250 FRA      FRA65              220
 4 France   250  1966 France (1963-)       250 FRA      FRA66              220
 5 France   250  1967 France (1963-)       250 FRA      FRA67              220
 6 France   250  1968 France (1963-)       250 FRA      FRA68              220
 7 France   250  1969 France (1963-)       250 FRA      FRA69              220
 8 France   250  1970 France (1963-)       250 FRA      FRA70              220
 9 France   250  1971 France (1963-)       250 FRA      FRA71              220
10 France   250  1972 France (1963-)       250 FRA      FRA72              220
# ℹ 65 more rows
# ℹ 406 more variables: ccodevdem <dbl>, cname_year <chr>, version <chr>,
#   act_act <dbl>, as_rifr <dbl>, as_ws <dbl>, bti_envc <dbl>, ccci_coop <dbl>,
#   ccci_em <dbl>, ccci_fin <dbl>, ccci_kyoto <dbl>, ccci_rep <dbl>,
#   ccci_unfccc <dbl>, cckp_rain <dbl>, cckp_temp <dbl>, ccl_exepp <dbl>,
#   ccl_leglp <dbl>, ccl_lpp <dbl>, ccl_mitlpp <dbl>, ccl_nexep <dbl>,
#   ccl_nlegl <dbl>, ccl_nlp <dbl>, ccl_nmitlp <dbl>, edgar_bc <dbl>, …

You could also filter by all of the countries that are NOT France

qog |> 
  filter(cname != "France") |> 
  count(cname)

# A tibble: 203 × 2
   cname                   n
   <chr>               <int>
 1 Afghanistan            75
 2 Albania                75
 3 Algeria                58
 4 Andorra                75
 5 Angola                 45
 6 Antigua and Barbuda    75
 7 Argentina              75
 8 Armenia                29
 9 Australia              75
10 Austria                66
# ℹ 193 more rows
…
qog_subset |> view()

3.2 Select columns

Now we want to select one or two variables we are interested in to do some analysis. The select function from the tidyverse is useful to select specifics variables/columns from our dataframe

qog_co2 <- qog_subset |> 
  select(cname, year,  wdi_co2)

qog_co2

# A tibble: 269 × 3
   cname    year wdi_co2
   <chr>   <dbl>   <dbl>
 1 Denmark  1991   11.7 
 2 Denmark  1992   10.5 
 3 Denmark  1993   11.0 
 4 Denmark  1994   11.7 
 5 Denmark  1995   10.9 
 6 Denmark  1996   13.7 
 7 Denmark  1997   11.6 
 8 Denmark  1998   11.2 
 9 Denmark  1999   10.4 
10 Denmark  2000    9.61
# ℹ 259 more rows
…
Here we see that on average, the Saudi Arabia, Russia have the highest on the period.

We would also wonder which year the emission have been the highest

qog_co2 |> 
  group_by(year) |> 
  summarise(mean_co2 = mean(wdi_co2, na.rm = T)) |> 
  arrange(desc(mean_co2)) 

# A tibble: 30 × 2
    year mean_co2
   <dbl>    <dbl>
 1  2006     9.25
 2  1993     9.19
 3  2008     9.13
 4  1992     9.08
 5  2004     9.03
 6  2010     9.01
 7  2015     8.95
 8  2005     8.91
 9  1994     8.90
10  1996     8.88
# ℹ 20 more rows
…
