Introduction to R - 4 Data vizualisation
…
We can also look at how this varies across countries. As the ches$country variable is coded by countrycodes that are not meaningful, I also convert them with their labels as I did for the region.

ches <- ches |> mutate(country = labelled::unlabelled(country))
ches |> count(country)

# A tibble: 28 × 2
   country     n
   <fct>   <int>
 1 be         72
 2 dk         55
 3 ge         45
 4 gr         40
 5 esp        74
 6 fr         61
 7 irl        41
 8 it         84
 9 nl         61
10 uk         42
# ℹ 18 more rows
…
